Explorative data analysis and data visualization in R
…
Look at the data by groups

One of the strengths of R is the possibility to perform vector operations, such as arithmetics operations or indexes operations. However, sometimes one wants to perform operations just for a sub-group of a vector. This may be particularly useful for categorical variables. A categarical variable, usually, describes a feature of the data and most of the time one wants to preserve these information when performing operations. In this case, group_by (and all its derived functions) can help us in this task.

# group_by divides the vector, or the table, in groups defined by one or more variables and performs the operation by these so-defined groups
bd_fat_df_BMI %>% 
      group_by(height <= quantile(height)[3], height > quantile(height)[3]) # here we divide the dataset according to the heights. We will have 2 subgroups having the top 50% heights and the bottom 50% heights

## # A tibble: 210 x 18
## # Groups:   height <= quantile(height)[3], height > quantile(height)[3]
## #   [2]
##      age height weight   BMI density percent.fat neck.circum chest.circum
##    <dbl>  <dbl>  <dbl> <dbl>   <dbl>       <dbl>       <dbl>        <dbl>
##  1    46   72.2   363.  48.9   1.02         35.2        51.2         136.
##  2    45   68.8   263.  39.1   1.02         34.5        43.2         128.
##  3    51   64     219   37.6   0.995        47.5        41.2         120.
##  4    65   68.2   224.  33.9   1.02         35          38.8         120.
##  5    37   71.5   241.  33.2   1.03         29.9        42.1         119.
##  6    44   69.8   223   32.2   1.02         34.8        40.9         122.
##  7    41   73.5   247.  32.2   1.03         32.3        42.1         117 
##  8    49   65     192.  31.9   1.01         40.1        38.4         118.
##  9    63   69.5   219.  31.9   1.04         27.3        40.2         118.
## 10    50   67     203   31.8   1.03         32.6        40.2         115.
## #  with 200 more rows, and 10 more variables: abdomen.circum <dbl>,
## #   hip.circum <dbl>, thigh.circum <dbl>, knee.circum <dbl>,
## #   ankle.circum <dbl>, bicep.circum <dbl>, forearm.circum <dbl>,
## #   wrist.circum <dbl>, `height <= quantile(height)[3]` <lgl>, `height >
## #   quantile(height)[3]` <lgl>
…
